[
  {
    "id": "1512569",
    "name": "Tashkent"
  },
  {
    "id": "1217662",
    "name": "Bukhara"
  },
  {
    "id": "1484846",
    "name": "Andijan"
  },
  {
    "id": "1513604",
    "name": "Khiva"
  },
  {
    "id": "1216187",
    "name": "Shahrisabz"
  },
  {
    "id": "1215694",
    "name": "Zomin"
  },
  {
    "id": "1513966",
    "name": "Guliston"
  },
  {
    "id": "601294",
    "name": "Nukus"
  },
  {
    "id": "1513157",
    "name": "Namangan"
  },
  {
    "id": "1216311",
    "name": "Qarshi"
  },
  {
    "id": "1215957",
    "name": "Termez"
  },
  {
    "id": "1514019",
    "name": "Fergana"
  }
]